…
```r
card_fraud %>% 
  count(job, sort=TRUE) %>% 
  mutate(perc = n/sum(n))
```

```
## # A tibble: 494 × 3
##    job                            n    perc
##    <chr>                      <int>   <dbl>
##  1 Film/video editor           5106 0.00761
##  2 Exhibition designer         4728 0.00705
##  3 Naval architect             4546 0.00677
##  4 Surveyor, land/geomatics    4448 0.00663
##  5 Materials engineer          4292 0.00640
##  6 Designer, ceramics/pottery  4262 0.00635
##  7 IT trainer                  4014 0.00598
##  8 Financial adviser           3959 0.00590
##  9 Systems developer           3948 0.00588
## 10 Environmental consultant    3831 0.00571
## # ℹ 484 more rows
```
…
model_compare
```

```
## # A tibble: 32 × 8
##    .metric   .estimator   mean     n  std_err .config              model    time
##    <chr>     <chr>       <dbl> <int>    <dbl> <chr>                <chr>   <dbl>
##  1 accuracy  binary     0.993      5 0.000476 Preprocessor1_Model1 Logist…  6.51
##  2 f_meas    binary     0.0381     5 0.00492  Preprocessor1_Model1 Logist…  6.51
##  3 kap       binary     0.0368     5 0.00488  Preprocessor1_Model1 Logist…  6.51
##  4 precision binary     0.209      5 0.0564   Preprocessor1_Model1 Logist…  6.51
##  5 recall    binary     0.0216     5 0.00277  Preprocessor1_Model1 Logist…  6.51
##  6 roc_auc   binary     0.839      5 0.00789  Preprocessor1_Model1 Logist…  6.51
##  7 sens      binary     0.0216     5 0.00277  Preprocessor1_Model1 Logist…  6.51
##  8 spec      binary     0.999      5 0.000147 Preprocessor1_Model1 Logist…  6.51
##  9 accuracy  binary     0.997      5 0.000370 Preprocessor1_Model1 Decisi… 25.1 
## 10 f_meas    binary     0.717      5 0.0327   Preprocessor1_Model1 Decisi… 25.1 
## # ℹ 22 more rows
```
…
```r
best_model_preds <- 
  xgb_wflow %>% 
  fit(data = card_fraud_train) %>%  
  
  ## Use `augment()` to get predictions for entire data set
  augment(new_data = card_fraud)

best_model_preds
```

```
## # A tibble: 671,028 × 27
##    trans_date_trans_time  year category    amt city  state   lat   long city_pop
##    <dttm>                <dbl> <fct>     <dbl> <chr> <chr> <dbl>  <dbl>    <dbl>
##  1 2019-02-22 07:32:58    2019 entertai…  7.79 Veed… IN     40.1  -87.3     4049
##  2 2019-02-16 15:07:20    2019 kids_pets  3.89 Holl… OH     40.0  -81.0      128
##  3 2019-12-27 22:25:34    2019 personal…  8.43 Arno… MO     38.4  -90.4    35439
##  4 2019-03-03 10:11:39    2019 grocery_… 40    Apis… TN     35.0  -85.0     3730
##  5 2019-02-09 17:14:54    2019 food_din… 54.0  Red … CO     39.5 -106.       277
##  6 2019-09-09 01:19:59    2019 shopping… 95.6  Irwi… GA     32.8  -83.2     1841
##  7 2019-12-15 09:11:53    2019 gas_tran… 65.0  Rani… MN     48.6  -93.3      136
##  8 2020-06-02 17:31:41    2020 home       3.41 Hunt… AL     34.6  -86.6   190178
##  9 2019-12-28 16:58:06    2019 entertai… 69.1  Lore… TX     33.7 -102.      1571
## 10 2019-12-15 12:14:45    2019 entertai…  7.23 Bowd… ME     44.1  -70.0     3224
## # ℹ 671,018 more rows
## # ℹ 18 more variables: job <fct>, dob <date>, merch_lat <dbl>,
## #   merch_long <dbl>, is_fraud <fct>, hour <int>, wday <ord>, month_name <ord>,
## #   age <dbl>, lat1_radians <dbl>, lat2_radians <dbl>, long1_radians <dbl>,
## #   long2_radians <dbl>, distance_miles <dbl>, distance_km <dbl>,
## #   .pred_class <fct>, .pred_1 <dbl>, .pred_0 <dbl>
```
…
```r
cost <- best_model_preds %>%
  select(is_fraud, amt, pred = .pred_class)

cost
```

```
## # A tibble: 671,028 × 3
##    is_fraud   amt pred 
##    <fct>    <dbl> <fct>
##  1 0         7.79 0    
##  2 0         3.89 0    
##  3 0         8.43 0    
##  4 0        40    0    
##  5 0        54.0  0    
##  6 0        95.6  0    
##  7 0        65.0  0    
##  8 0         3.41 0    
##  9 0        69.1  0    
## 10 0         7.23 0    
## # ℹ 671,018 more rows
```
…
