…
## Explore the data

### Specific questions

-   Generate a data frame that summarizes the number of mass shootings per year.


```r
mass_shootings %>%
  group_by(year) %>%
  summarise(count=n())
```

```
## # A tibble: 37 × 2
##     year count
##    <dbl> <int>
##  1  1982     1
##  2  1984     2
##  3  1986     1
##  4  1987     1
##  5  1988     1
##  6  1989     2
##  7  1990     1
##  8  1991     3
##  9  1992     2
## 10  1993     4
## # ℹ 27 more rows
```
…
#When is fraud more prevalent? 
#by date #2019-01-18 has the most fraud
card_fraud %>% 
  filter(is_fraud == 1) %>% 
  group_by(date_only) %>%
  select(date_only, amt) %>% 
  arrange(desc(amt))
```

```
## # A tibble: 3,936 × 2
## # Groups:   date_only [493]
##    date_only    amt
##    <date>     <dbl>
##  1 2019-01-18 1334.
##  2 2019-12-08 1313.
##  3 2020-06-07 1313.
##  4 2019-12-20 1295.
##  5 2019-06-03 1288.
##  6 2019-08-31 1282.
##  7 2019-05-20 1262.
##  8 2019-02-15 1259.
##  9 2020-03-10 1258.
## 10 2019-10-05 1246.
## # ℹ 3,926 more rows
```
…
```r
#by hours #Fraud is likely to happen at hour 23
card_fraud %>% 
  filter(is_fraud == 1) %>%
  group_by(hour) %>% 
  summarise(count = n()) %>% 
  arrange(desc(count))
```

```
## # A tibble: 24 × 2
##     hour count
##    <int> <int>
##  1    23  1012
##  2    22   981
##  3     0   348
##  4     1   332
##  5     3   326
##  6     2   313
##  7    19    52
##  8    18    49
##  9    17    48
## 10    13    45
## # ℹ 14 more rows
```
…
